<svg xmlns="http://www.w3.org/2000/svg" width="173" height="164" viewBox="0 0 173 164">
  <g fill="none" fill-rule="evenodd">
    <g transform="matrix(-1 0 0 1 173 0)">
      <path fill="#380D75" fill-rule="nonzero" d="M155.7,0 L146.283333,0 C144.690919,0 143.400016,1.28816976 143.4,2.87719298 L143.4,17.2631579 L92.2666667,17.2631579 L92.2666667,23.0175439 L143.4,23.0175439 L143.4,103.578947 C143.400016,105.167971 144.690919,106.456124 146.283333,106.45614 L155.7,106.45614 C162.069684,106.45614 167.233333,111.608793 167.233333,117.964912 C167.233333,124.321032 162.069684,129.473684 155.7,129.473684 L17.3,129.473684 C13.0415192,129.470724 8.93283048,131.04167 5.76666667,133.883425 L5.76666667,34.5263158 C5.77388653,28.1731832 10.9333089,23.0247484 17.3,23.0175439 L95.15,23.0175439 L95.15,17.2631579 L17.3,17.2631579 C7.74992011,17.2738608 0.0107257503,24.9965738 0,34.5263158 L0,146.736842 C0.0107257503,156.266584 7.74992011,163.989297 17.3,164 L37.4833333,164 C39.0757478,164 40.3666507,162.71183 40.3666667,161.122807 L40.3666667,135.22807 L155.7,135.22807 C165.25008,135.217367 172.989274,127.494654 173,117.964912 L173,17.2631579 C172.989274,7.73341587 165.25008,0.0107029088 155.7,0 Z"/>
      <g fill="#341472" fill-opacity=".2" transform="translate(17 30)">
        <path d="M106.333333 4L99.6666667 4C98.7333333 4 98 3.12 98 2 98 .88 98.7333333 0 99.6666667 0L106.333333 0C107.266667 0 108 .88 108 2 108 3.12 107.266667 4 106.333333 4zM92.3333333 4L85.6666667 4C84.7333333 4 84 3.12 84 2 84 .88 84.7333333 0 85.6666667 0L92.3333333 0C93.2666667 0 94 .88 94 2 94 3.12 93.2666667 4 92.3333333 4zM78.3333333 4L71.6666667 4C70.7333333 4 70 3.12 70 2 70 .88 70.7333333 0 71.6666667 0L78.3333333 0C79.2666667 0 80 .88 80 2 80 3.12 79.2666667 4 78.3333333 4zM64.3333333 4L57.6666667 4C56.7333333 4 56 3.12 56 2 56 .88 56.7333333 0 57.6666667 0L64.3333333 0C65.2666667 0 66 .88 66 2 66 3.12 65.2666667 4 64.3333333 4zM50.3333333 4L43.6666667 4C42.7333333 4 42 3.12 42 2 42 .88 42.7333333 0 43.6666667 0L50.3333333 0C51.2666667 0 52 .88 52 2 52 3.12 51.2666667 4 50.3333333 4zM36.3333333 4L29.6666667 4C28.7333333 4 28 3.12 28 2 28 .88 28.7333333 0 29.6666667 0L36.3333333 0C37.2666667 0 38 .88 38 2 38 3.12 37.2666667 4 36.3333333 4zM22.3333333 4L15.6666667 4C14.7333333 4 14 3.12 14 2 14 .88 14.7333333 0 15.6666667 0L22.3333333 0C23.2666667 0 24 .88 24 2 24 3.12 23.2666667 4 22.3333333 4zM8.33333333 4L1.66666667 4C.733333333 4 0 3.12 0 2 0 .88.733333333 0 1.66666667 0L8.33333333 0C9.26666667 0 10 .88 10 2 10 3.12 9.26666667 4 8.33333333 4z" transform="translate(4)"/>
        <g transform="translate(111 8)">
          <path d="M5.33333333,7 L-1.33333333,7 C-2.26666667,7 -3,6.12 -3,5 C-3,3.88 -2.26666667,3 -1.33333333,3 L5.33333333,3 C6.26666667,3 7,3.88 7,5 C7,6.12 6.26666667,7 5.33333333,7 Z" transform="rotate(90 2 5)"/>
          <path d="M5.33333333,21 L-1.33333333,21 C-2.26666667,21 -3,20.12 -3,19 C-3,17.88 -2.26666667,17 -1.33333333,17 L5.33333333,17 C6.26666667,17 7,17.88 7,19 C7,20.12 6.26666667,21 5.33333333,21 Z" transform="rotate(90 2 19)"/>
          <path d="M5.33333333,35 L-1.33333333,35 C-2.26666667,35 -3,34.12 -3,33 C-3,31.88 -2.26666667,31 -1.33333333,31 L5.33333333,31 C6.26666667,31 7,31.88 7,33 C7,34.12 6.26666667,35 5.33333333,35 Z" transform="rotate(90 2 33)"/>
          <path d="M5.33333333,49 L-1.33333333,49 C-2.26666667,49 -3,48.12 -3,47 C-3,45.88 -2.26666667,45 -1.33333333,45 L5.33333333,45 C6.26666667,45 7,45.88 7,47 C7,48.12 6.26666667,49 5.33333333,49 Z" transform="rotate(90 2 47)"/>
          <path d="M5.33333333,63 L-1.33333333,63 C-2.26666667,63 -3,62.12 -3,61 C-3,59.88 -2.26666667,59 -1.33333333,59 L5.33333333,59 C6.26666667,59 7,59.88 7,61 C7,62.12 6.26666667,63 5.33333333,63 Z" transform="rotate(90 2 61)"/>
          <path d="M5.33333333,77 L-1.33333333,77 C-2.26666667,77 -3,76.12 -3,75 C-3,73.88 -2.26666667,73 -1.33333333,73 L5.33333333,73 C6.26666667,73 7,73.88 7,75 C7,76.12 6.26666667,77 5.33333333,77 Z" transform="rotate(90 2 75)"/>
        </g>
        <g transform="translate(0 8)">
          <path d="M5.33333333,7 L-1.33333333,7 C-2.26666667,7 -3,6.12 -3,5 C-3,3.88 -2.26666667,3 -1.33333333,3 L5.33333333,3 C6.26666667,3 7,3.88 7,5 C7,6.12 6.26666667,7 5.33333333,7 Z" transform="rotate(90 2 5)"/>
          <path d="M5.33333333,21 L-1.33333333,21 C-2.26666667,21 -3,20.12 -3,19 C-3,17.88 -2.26666667,17 -1.33333333,17 L5.33333333,17 C6.26666667,17 7,17.88 7,19 C7,20.12 6.26666667,21 5.33333333,21 Z" transform="rotate(90 2 19)"/>
          <path d="M5.33333333,35 L-1.33333333,35 C-2.26666667,35 -3,34.12 -3,33 C-3,31.88 -2.26666667,31 -1.33333333,31 L5.33333333,31 C6.26666667,31 7,31.88 7,33 C7,34.12 6.26666667,35 5.33333333,35 Z" transform="rotate(90 2 33)"/>
          <path d="M5.33333333,49 L-1.33333333,49 C-2.26666667,49 -3,48.12 -3,47 C-3,45.88 -2.26666667,45 -1.33333333,45 L5.33333333,45 C6.26666667,45 7,45.88 7,47 C7,48.12 6.26666667,49 5.33333333,49 Z" transform="rotate(90 2 47)"/>
          <path d="M5.33333333,63 L-1.33333333,63 C-2.26666667,63 -3,62.12 -3,61 C-3,59.88 -2.26666667,59 -1.33333333,59 L5.33333333,59 C6.26666667,59 7,59.88 7,61 C7,62.12 6.26666667,63 5.33333333,63 Z" transform="rotate(90 2 61)"/>
          <path d="M5.33333333,77 L-1.33333333,77 C-2.26666667,77 -3,76.12 -3,75 C-3,73.88 -2.26666667,73 -1.33333333,73 L5.33333333,73 C6.26666667,73 7,73.88 7,75 C7,76.12 6.26666667,77 5.33333333,77 Z" transform="rotate(90 2 75)"/>
        </g>
        <path d="M8.33333333 4L1.66666667 4C.733333333 4 0 3.12 0 2 0 .88.733333333 0 1.66666667 0L8.33333333 0C9.26666667 0 10 .88 10 2 10 3.12 9.26666667 4 8.33333333 4zM22.3333333 4L15.6666667 4C14.7333333 4 14 3.12 14 2 14 .88 14.7333333 0 15.6666667 0L22.3333333 0C23.2666667 0 24 .88 24 2 24 3.12 23.2666667 4 22.3333333 4zM36.3333333 4L29.6666667 4C28.7333333 4 28 3.12 28 2 28 .88 28.7333333 0 29.6666667 0L36.3333333 0C37.2666667 0 38 .88 38 2 38 3.12 37.2666667 4 36.3333333 4zM50.3333333 4L43.6666667 4C42.7333333 4 42 3.12 42 2 42 .88 42.7333333 0 43.6666667 0L50.3333333 0C51.2666667 0 52 .88 52 2 52 3.12 51.2666667 4 50.3333333 4zM64.3333333 4L57.6666667 4C56.7333333 4 56 3.12 56 2 56 .88 56.7333333 0 57.6666667 0L64.3333333 0C65.2666667 0 66 .88 66 2 66 3.12 65.2666667 4 64.3333333 4zM78.3333333 4L71.6666667 4C70.7333333 4 70 3.12 70 2 70 .88 70.7333333 0 71.6666667 0L78.3333333 0C79.2666667 0 80 .88 80 2 80 3.12 79.2666667 4 78.3333333 4zM92.3333333 4L85.6666667 4C84.7333333 4 84 3.12 84 2 84 .88 84.7333333 0 85.6666667 0L92.3333333 0C93.2666667 0 94 .88 94 2 94 3.12 93.2666667 4 92.3333333 4zM106.333333 4L99.6666667 4C98.7333333 4 98 3.12 98 2 98 .88 98.7333333 0 99.6666667 0L106.333333 0C107.266667 0 108 .88 108 2 108 3.12 107.266667 4 106.333333 4z" transform="translate(4 89)"/>
      </g>
      <path fill="#AFA3C6" fill-rule="nonzero" d="M34.6,158.245614 L17.3,158.245614 C10.9303159,158.245614 5.76666667,153.092961 5.76666667,146.736842 C5.76666667,140.380723 10.9303159,135.22807 17.3,135.22807 L34.6,135.22807 L34.6,158.245614 Z"/>
      <path fill="#CAB5FF" fill-rule="nonzero" d="M167.233333,105.108175 C164.762144,102.26783 161.556048,100.698117 158.233333,100.701754 L149.233333,100.701754 L149.233333,5.75438596 L158.233333,5.75438596 C163.201561,5.76159046 167.227699,10.9100253 167.233333,17.2631579 L167.233333,105.108175 Z"/>
    </g>
    <g transform="translate(52 41)">
      <rect width="22" height="4" x="35" y="65" fill="#380D75" rx="2"/>
      <rect width="10" height="4" x="4" y="11" fill="#380D75" rx="2" transform="rotate(-71 9 13)"/>
      <path fill="#CAB5FF" fill-rule="nonzero" d="M6.09988487,14.4777849 C6.1507852,14.4777849 6.20168554,14.4777849 6.25258587,14.4777849 C6.96519056,14.374908 7.47419391,13.706208 7.37239324,12.9860696 L7.01609089,10.1569543 L23.4059987,23.0165693 L20.55558,23.3766385 C19.8429753,23.4795155 19.3339719,24.1482154 19.4357726,24.8683539 C19.5375733,25.5370539 20.097477,26 20.7591813,26 C20.8100816,26 20.860982,26 20.9118823,26 L26.8672215,25.2284231 C27.2235238,25.1769846 27.5289259,25.0226693 27.7325272,24.7140385 C27.9361285,24.4568462 28.0379292,24.096777 27.9870289,23.7367078 L27.2235238,17.7184079 C27.1217232,16.9982695 26.4600188,16.4838849 25.7474141,16.5867618 C25.0348094,16.6896387 24.5258061,17.3583387 24.6276068,18.0784771 L24.9839091,20.9075924 L8.59400127,8.04797742 L11.3935197,7.68790819 C12.1570247,7.53359281 12.6660281,6.91633129 12.5642274,6.14475439 C12.4624267,5.42461595 11.8007224,4.91023135 11.0881177,5.01310827 L5.1327785,5.78468517 C4.42017381,5.88756209 3.91117047,6.55626207 4.01297114,7.27640051 L4.77647616,13.2947003 C4.87827683,13.9634003 5.43818051,14.4777849 6.09988487,14.4777849 Z" transform="scale(-1 1) rotate(33 0 -38.515)"/>
      <path fill="#CAB5FF" fill-rule="nonzero" d="M24.0998849,48.4777849 C24.1507852,48.4777849 24.2016855,48.4777849 24.2525859,48.4777849 C24.9651906,48.374908 25.4741939,47.706208 25.3723932,46.9860696 L25.0160909,44.1569543 L64.2583106,74.8707521 L61.4078918,75.2308213 C60.6952871,75.3336982 60.1862838,76.0023982 60.2880845,76.7225367 C60.3898851,77.3912366 60.9497888,77.8541828 61.6114932,77.8541828 C61.6623935,77.8541828 61.7132938,77.8541828 61.7641942,77.8541828 L67.7195334,77.0826059 C68.0758357,77.0311674 68.3812377,76.876852 68.584839,76.5682213 C68.7884404,76.311029 68.8902411,75.9509598 68.8393407,75.5908905 L68.0758357,69.5725907 C67.974035,68.8524523 67.3123307,68.3380677 66.599726,68.4409446 C65.8871213,68.5438215 65.3781179,69.2125215 65.4799186,69.9326599 L65.836221,72.7617752 L26.5940013,42.0479774 L29.3935197,41.6879082 C30.1570247,41.5335928 30.6660281,40.9163313 30.5642274,40.1447544 C30.4624267,39.4246159 29.8007224,38.9102313 29.0881177,39.0131083 L23.1327785,39.7846852 C22.4201738,39.8875621 21.9111705,40.5562621 22.0129711,41.2764005 L22.7764762,47.2947003 C22.8782768,47.9634003 23.4381805,48.4777849 24.0998849,48.4777849 Z" transform="scale(-1 1) rotate(-38 0 190.354)"/>
      <g fill-rule="nonzero" transform="translate(18 3)">
        <g transform="translate(1.44 2.16)">
          <polygon fill="#E24329" points="9.667 28.216 9.667 28.216 18.739 .667 .669 .667" transform="translate(15.763 17.152)"/>
          <polygon fill="#FC6D26" points="22.085 28.216 13.013 .667 .372 .667" transform="translate(3.37 17.152)"/>
          <path fill="#E24329" d="M0.446163934,17.6256 L13.0874754,17.6256 L7.65914754,1.0368 C7.36170492,0.222171429 6.17193443,0.222171429 5.8744918,1.0368 L0.446163934,17.6256 L0.446163934,17.6256 Z" transform="translate(3.288 .19)"/>
          <polygon fill="#FC6D26" points="0 28.216 9.072 .667 21.713 .667" transform="translate(25.43 17.152)"/>
          <path fill="#FCA326" d="M22.3825574,0.592457143 L22.3825574,0.592457143 L25.1339016,8.96091429 C25.3569836,9.70148571 25.1339016,10.5901714 24.4646557,11.0345143 L0.669245902,28.1417143 L22.3825574,0.592457143 L22.3825574,0.592457143 Z" transform="translate(24.767 17.223)"/>
          <path fill="#FCA326" d="M3.49495082,0.592457143 L3.49495082,0.592457143 L0.743606557,8.96091429 C0.52052459,9.70148571 0.743606557,10.5901714 1.41285246,11.0345143 L25.2082623,28.1417143 L3.49495082,0.592457143 L3.49495082,0.592457143 Z" transform="translate(.228 17.223)"/>
          <path fill="#E24329" d="M13.0131148,17.6256 L0.371803279,17.6256 L5.80013115,1.0368 C6.09757377,0.222171429 7.28734426,0.222171429 7.58478689,1.0368 L13.0131148,17.6256 L13.0131148,17.6256 Z" transform="translate(34.186 .19)"/>
        </g>
        <g fill="#380D75">
          <path d="M11.4912,32.0494426 C10.6704,32.0494426 9.99883636,31.528918 9.70036364,30.7853115 L0.447709091,2.60262295 C0.298472727,2.0077377 0.373090909,1.41285246 0.671563636,0.966688525 C1.04465455,0.52052459 1.56698182,0.223081967 2.16392727,0.223081967 L20.7438545,0.223081967 C21.3408,0.223081967 21.9377455,0.52052459 22.2362182,0.966688525 C22.6093091,1.41285246 22.6839273,2.08209836 22.4600727,2.60262295 L13.2074182,30.7853115 C12.9835636,31.528918 12.312,32.0494426 11.4912,32.0494426 Z M4.77556364,3.94111475 L11.4912,24.3159344 L18.2068364,3.94111475 L4.77556364,3.94111475 Z" transform="translate(15.817 17.966)"/>
          <path d="M24.6986182,32.0494426 C24.1762909,32.0494426 23.5793455,31.8263607 23.2062545,31.3058361 L0.895418182,3.12314754 C0.447709091,2.5282623 0.373090909,1.78465574 0.671563636,1.18977049 C0.970036364,0.52052459 1.6416,0.148721311 2.31316364,0.148721311 L15.2967273,0.148721311 C16.1175273,0.148721311 16.7890909,0.669245902 17.0875636,1.41285246 L26.3402182,29.595541 C26.6386909,30.4878689 26.2656,31.3801967 25.4448,31.8263607 C25.2955636,31.975082 24.9970909,32.0494426 24.6986182,32.0494426 Z M6.19330909,3.94111475 L19.5499636,20.8209836 L13.9536,3.94111475 L6.19330909,3.94111475 Z" transform="translate(2.635 17.966)"/>
          <path d="M27.2356364,32.0494426 C26.8625455,32.0494426 26.4894545,31.9007213 26.1163636,31.6776393 L1.71621818,14.2028852 C0.373090909,13.2361967 -0.149236364,11.5259016 0.298472727,9.96432787 L3.13396364,1.41285246 C3.35781818,0.743606557 3.88014545,0.297442623 4.55170909,0.148721311 C5.22327273,6.98052727e-14 5.89483636,0.297442623 6.34254545,0.817967213 L28.6533818,29.0006557 C29.2503273,29.7442623 29.1757091,30.7853115 28.5041455,31.4545574 C28.2056727,31.8263607 27.7579636,32.0494426 27.2356364,32.0494426 Z M5.59636364,5.8744918 L3.88014545,11.1540984 L17.5352727,20.9697049 L5.59636364,5.8744918 Z" transform="translate(.066 18.037)"/>
          <path d="M15.4459636,21.7133115 L2.4624,21.7133115 C1.86545455,21.7133115 1.26850909,21.4158689 0.970036364,20.9697049 C0.596945455,20.523541 0.522327273,19.8542951 0.671563636,19.3337705 L6.26792727,2.37954098 C6.64101818,1.18977049 7.76029091,0.446163934 8.95418182,0.446163934 C8.95418182,0.446163934 8.95418182,0.446163934 8.95418182,0.446163934 C10.1480727,0.446163934 11.2673455,1.18977049 11.6404364,2.37954098 L17.2368,19.3337705 C17.3860364,19.9286557 17.3114182,20.523541 17.0129455,20.9697049 C16.6398545,21.4158689 16.0429091,21.7133115 15.4459636,21.7133115 Z M4.99941818,17.9952787 L12.8343273,17.9952787 L8.87956364,6.09757377 L4.99941818,17.9952787 Z" transform="translate(2.553 .19)"/>
          <path d="M2.53701818,32.0494426 C2.23854545,32.0494426 1.94007273,31.975082 1.6416,31.8263607 C0.8208,31.3801967 0.447709091,30.4878689 0.746181818,29.595541 L9.99883636,1.41285246 C10.2226909,0.669245902 10.9688727,0.148721311 11.7896727,0.148721311 L24.7732364,0.148721311 C25.5194182,0.148721311 26.1163636,0.52052459 26.4148364,1.18977049 C26.7133091,1.85901639 26.6386909,2.60262295 26.1909818,3.12314754 L3.88014545,31.3058361 C3.65629091,31.8263607 3.13396364,32.0494426 2.53701818,32.0494426 Z M13.2074182,3.94111475 L7.61105455,20.8209836 L21.0423273,3.94111475 L13.2074182,3.94111475 Z" transform="translate(24.772 17.966)"/>
          <path d="M2.4624,31.975082 C1.94007273,31.975082 1.49236364,31.752 1.11927273,31.3801967 C0.447709091,30.7109508 0.447709091,29.6699016 0.970036364,28.9262951 L23.2808727,0.817967213 C23.7285818,0.297442623 24.4001455,-1.19224075e-13 25.0717091,0.148721311 C25.7432727,0.297442623 26.3402182,0.743606557 26.4894545,1.41285246 L29.3249455,9.96432787 C29.8472727,11.5259016 29.2503273,13.2361967 27.9818182,14.2028852 L3.58167273,31.6776393 C3.20858182,31.9007213 2.83549091,31.975082 2.4624,31.975082 Z M24.1016727,5.8744918 L12.1627636,20.9697049 L25.8178909,11.228459 L24.1016727,5.8744918 Z" transform="translate(24.853 18.037)"/>
          <path d="M15.2967273,21.7133115 L2.31316364,21.7133115 C1.71621818,21.7133115 1.11927273,21.4158689 0.8208,20.9697049 C0.447709091,20.523541 0.373090909,19.8542951 0.596945455,19.3337705 L6.19330909,2.37954098 C6.5664,1.26413115 7.61105455,0.446163934 8.87956364,0.446163934 C8.87956364,0.446163934 8.87956364,0.446163934 8.87956364,0.446163934 C10.0734545,0.446163934 11.1927273,1.18977049 11.5658182,2.37954098 L17.1621818,19.3337705 C17.3114182,19.9286557 17.2368,20.523541 16.9383273,20.9697049 C16.4906182,21.4158689 15.8936727,21.7133115 15.2967273,21.7133115 Z M4.85018182,17.9952787 L12.6850909,17.9952787 L8.73032727,6.09757377 L4.85018182,17.9952787 Z" transform="translate(34.305 .19)"/>
        </g>
      </g>
      <path fill="#FC6D26" fill-rule="nonzero" stroke="#380D75" stroke-linecap="round" stroke-linejoin="round" stroke-width="2.4" d="M89.2219202,10.0182841 C89.2177199,9.99718706 89.2121196,9.97749648 89.203719,9.95780591 L87.725225,5.38537271 C87.64682,5.15049226 87.4368066,5 87.191791,5 C86.9425752,5.00140647 86.735362,5.1533052 86.6583571,5.38818565 L85.2442671,9.76371308 L80.7583817,9.76371308 L79.3414915,5.38818565 C79.2658867,5.1533052 79.0572734,5.00140647 78.8108577,5 C78.8094576,5 78.8080576,5 78.8080576,5 C78.5616419,5 78.3530286,5.15049226 78.2732235,5.38818565 L76.7947295,9.9676512 C76.7933294,9.97046414 76.7919293,9.97327707 76.7919293,9.97609001 L76.0400814,12.2925457 C75.9308745,12.6315049 76.0498821,13 76.3355002,13.209564 L82.8179127,17.9409283 C82.8725162,17.9803094 82.9355202,18 82.9971241,18 C83.043327,18 83.08953,17.9887482 83.1315327,17.9676512 C83.1357329,17.9648383 83.137133,17.9648383 83.1385331,17.9634318 C83.1413333,17.9620253 83.1441335,17.9592124 83.1469336,17.9578059 C83.1567343,17.95218 83.1651348,17.9479606 83.1749354,17.9409283 C83.1763355,17.9395218 83.1777356,17.9395218 83.1791357,17.9381153 L89.6615482,13.2081575 C89.9513666,13.0014065 90.0689741,12.6329114 89.9597671,12.2939522 L89.2219202,10.0182841 Z"/>
    </g>
  </g>
</svg>
